{"isSuccess":true,"message":"Success","data":{"successMessage":"Records retrieved successfully","errorMessage":null,"responseCode":200,"total":16,"totalPages":4,"rowsPerPage":5,"pageItemsCount":5,"pageNumber":1,"queryString":"","list":[[{"applicationID":"b80fae78-de9b-446e-8389-90c7d8a371b3","productID":"e6433ad5-c029-4700-ad0f-dfb439489f21","categoryName":"Fixed Deposit Account","customerID":"fedbfbfd-6178-4178-b022-2331631d3a23","dateOfApplication":"2023-12-05T00:00:00","dateCreated":"2023-12-05T08:41:00.45","firstName":"Richard","lastName":"Adibe","email":"adiberichard12@gmail.com","phone":"+2348066923517","gender":"male","providerName":"Fast Credit Limited","providerID":"585006ac-57cd-4cfa-8519-780e0b628476","productName":"Investment","providerLogoFileSystemId":"7bda9a50-53bb-448c-ae13-7203e21eba30","amount":"100000.00","interestRate":"1.5","duration":"3","categoryUrlSlug":"fixed-deposit-account","applicationStatus":"Provider Notified","applicationNumber":"23/FP-0038/NC/0047","allApplicationId":"d0750c3f-9dae-4866-9230-c75533631d17","commonPersonalDetailID":"1201cefc-5dba-46c6-8461-74852bcba6b2","customerIdentityId":null,"concurrencyHash":"4317DA655BF3FCFBBB6B071F586BE375AEC4F3F931F5B2CE4B9A9E14A6F00C2C","dataSource":"Common Applications","commonBankAccountDetailSourceId":"a3927ca4-4f99-4f79-8956-40d004db2586","commonBankAccountDetailIncomingId":"a3927ca4-4f99-4f79-8956-40d004db2586","commonAddressDetailId":"eaf749af-565c-44bf-a8bb-d8b009ca068c","nextOfKinDetailId":"52cbf8a7-61a1-4699-8a0b-01a84c94a28f","campaignID":"","productType":"Fixed Deposit"},{"applicationID":"e98e4efb-5698-421b-9e53-70e960a9a3ac","productID":"e6433ad5-c029-4700-ad0f-dfb439489f21","categoryName":"Fixed Deposit Account","customerID":"fedbfbfd-6178-4178-b022-2331631d3a23","dateOfApplication":"2023-09-29T00:00:00","dateCreated":"2023-09-29T11:36:31.7","firstName":"Richard","lastName":"Adibe","email":"adiberichard12@gmail.com","phone":"+2348066923517","gender":"male","providerName":"Fast Credit Limited","providerID":"585006ac-57cd-4cfa-8519-780e0b628476","productName":"Investment","providerLogoFileSystemId":"7bda9a50-53bb-448c-ae13-7203e21eba30","amount":"100000.00","interestRate":"1.5","duration":"3","categoryUrlSlug":"fixed-deposit-account","applicationStatus":"Savings Pending","applicationNumber":"23/FP-0038/NC/0008","allApplicationId":"7dfbae02-c50a-4c60-835e-c404a5fbc727","commonPersonalDetailID":"255381b7-1ee3-4668-a747-f17c47892f5f","customerIdentityId":null,"concurrencyHash":"BE054A27A2D8C1FC63455593EAF514B67677215090B9E52AFAA1025961AC1CD6","dataSource":"Common Applications","commonBankAccountDetailSourceId":"f952a48d-c886-4498-9f4c-205595e0325f","commonBankAccountDetailIncomingId":"f952a48d-c886-4498-9f4c-205595e0325f","commonAddressDetailId":"e1b80173-2e91-4cfd-93e9-08cc96aa9f45","nextOfKinDetailId":"0a787d29-4eb5-41a1-9496-8df56580e23f","campaignID":"","productType":"Fixed Deposit"},{"applicationID":"c03f49da-e40e-48c3-8b87-de409414629e","productID":"c83fa035-bb29-4ef5-91c6-da2b7a317767","categoryName":"Fixed Deposit Account","customerID":"fedbfbfd-6178-4178-b022-2331631d3a23","dateOfApplication":"2023-09-04T00:00:00","dateCreated":"2023-09-04T14:41:50.747","firstName":"Richard","lastName":"Adibe","email":"adiberichard12@gmail.com","phone":"+2348066923517","gender":"male","providerName":"KoboGo","providerID":"8c57cea3-940a-4369-9b82-b145b29c8de0","productName":"Knight King","providerLogoFileSystemId":"c4da296a-5c22-4c9c-aea9-61cf02de995b","amount":"100000.00","interestRate":"12","duration":"6","categoryUrlSlug":"fixed-deposit-account","applicationStatus":"Savings Pending","applicationNumber":"23/FP-0076/NC/0028","allApplicationId":"8a8e12c7-495b-4b63-8341-f9cd9eb04860","commonPersonalDetailID":"abc88cc4-98bd-46b6-9633-673e2c38089f","customerIdentityId":null,"concurrencyHash":"F68EC56DB10B78EC6C77DFCA3ED7C479CC6AF1766FC3EFD76F074D5D9A9F26B5","dataSource":"Common Applications","commonBankAccountDetailSourceId":"85187023-6811-485f-9ec5-bac07bc257f8","commonBankAccountDetailIncomingId":"85187023-6811-485f-9ec5-bac07bc257f8","commonAddressDetailId":"d7815b02-0de9-46e1-bd94-1d308901c3b2","nextOfKinDetailId":"387b9b5e-8321-4a80-95b5-97832f09b03b","campaignID":"","productType":"Fixed Deposit"},{"applicationID":"5df4a28c-60c2-44a5-9275-b354c3f4769b","productID":"c83fa035-bb29-4ef5-91c6-da2b7a317767","categoryName":"Fixed Deposit Account","customerID":"fedbfbfd-6178-4178-b022-2331631d3a23","dateOfApplication":"2023-08-31T00:00:00","dateCreated":"2023-08-31T11:37:30.163","firstName":"Richard","lastName":"Adibe","email":"adiberichard12@gmail.com","phone":"+2348066923517","gender":"male","providerName":"KoboGo","providerID":"8c57cea3-940a-4369-9b82-b145b29c8de0","productName":"Knight King","providerLogoFileSystemId":"c4da296a-5c22-4c9c-aea9-61cf02de995b","amount":"100000.00","interestRate":"12","duration":"6","categoryUrlSlug":"fixed-deposit-account","applicationStatus":"Savings Pending","applicationNumber":"23/FP-0076/NC/0017","allApplicationId":"331a01ef-1c99-4338-8e89-77fc1b5e8372","commonPersonalDetailID":"76f9b650-5bb5-4373-8919-ff2afaad546a","customerIdentityId":null,"concurrencyHash":"7C9D371BC3C5F7031E5687F43F75F6907CD87A68E805FD65A7744EFFF7A942B0","dataSource":"Common Applications","commonBankAccountDetailSourceId":"1d5228c3-6882-4a1b-b91f-1bd084aeaa4d","commonBankAccountDetailIncomingId":"1d5228c3-6882-4a1b-b91f-1bd084aeaa4d","commonAddressDetailId":"68ee34d4-a7f5-45c2-924c-341c88d1ec88","nextOfKinDetailId":"c2ec91f3-8c42-44e7-b690-bdaf0a78dc14","campaignID":"","productType":"Fixed Deposit"},{"applicationID":"53d46881-795e-4503-95f6-d34e567a36b6","productID":"c83fa035-bb29-4ef5-91c6-da2b7a317767","categoryName":"Fixed Deposit Account","customerID":"fedbfbfd-6178-4178-b022-2331631d3a23","dateOfApplication":"2023-08-18T00:00:00","dateCreated":"2023-08-18T15:49:58.937","firstName":"Richard","lastName":"Adibe","email":"adiberichard12@gmail.com","phone":"+2348066923517","gender":"male","providerName":"KoboGo","providerID":"8c57cea3-940a-4369-9b82-b145b29c8de0","productName":"Knight King","providerLogoFileSystemId":"c4da296a-5c22-4c9c-aea9-61cf02de995b","amount":"100000.00","interestRate":"12","duration":"6","categoryUrlSlug":"fixed-deposit-account","applicationStatus":"Provider Notified","applicationNumber":"23/FP-0076/NC/0010","allApplicationId":"7af502a9-d9bc-4b55-89c7-ff538b6bf34c","commonPersonalDetailID":"aee913a0-0c83-405a-9c3a-2b3004104594","customerIdentityId":null,"concurrencyHash":"E0C09EFB206D1AFB52BFF0CA3EDD867DD41AFE0FCC3D71B77ED42727A26ABC36","dataSource":"Common Applications","commonBankAccountDetailSourceId":"3374e4ac-e3bf-4de4-8726-7cb71c051419","commonBankAccountDetailIncomingId":"3374e4ac-e3bf-4de4-8726-7cb71c051419","commonAddressDetailId":"c3210403-f6fe-444f-8dc0-ef3a9535d1f5","nextOfKinDetailId":"f80387ab-4c98-472f-860a-7701c17f7594","campaignID":"","productType":"Fixed Deposit"}]],"details":null},"errors":null,"statusCode":200}